{
    "version": "https://jsonfeed.org/version/1",
    "title": "hello",
    "description": "",
    "home_page_url": "https://cidrak.gitlab.io",
    "feed_url": "https://cidrak.gitlab.io/feed.json",
    "user_comment": "",
    "author": {
        "name": "world"
    },
    "items": [
        {
            "id": "https://cidrak.gitlab.io/hello-dolly.html",
            "url": "https://cidrak.gitlab.io/hello-dolly.html",
            "title": "hello dolly",
            "summary": "hello dolly",
            "content_html": "hello dolly",
            "image": "https://cidrak.gitlab.io/media/posts/1/",
            "author": {
                "name": "world"
            },
            "tags": [
            ],
            "date_published": "2018-10-30T09:55:07-03:00",
            "date_modified": "2018-10-30T09:55:07-03:00"
        }
    ]
}
